0 36
0 37
0 38
0 39
0 40
0 41
0 42
0 43
0 44
0 45
0 47
0 48
0 49
0 50
0 51
0 52
0 62
0 63
0 87
0 101
0 102
0 103
0 176
0 3849
0 3859
0 3864
0 3866
0 3867
0 3868
0 3870
2 3847
2 29
2 144
2 145
2 146
2 147
2 149
2 150
2 152
2 153
2 154
2 155
2 156
2 157
2 158
2 159
2 4841
2 5109
2 5117
2 5998
2 6002
2 6004
2 6005
2 6068
2 6414
3 5
3 7
3 160
3 162
3 163
3 165
3 166
3 169
3 288
3 306
3 308
3 309
3 310
3 311
3 312
3 313
3 314
3 315
3 317
3 318
3 319
3 320
3 321
3 322
3 323
3 324
3 326
3 327
3 1296
3 3878
3 3879
3 3880
3 3881
3 3883
3 3884
3 3885
3 3886
3 3887
3 3888
3 3889
3 3890
3 3891
3 4173
3 4933
3 4934
3 4937
3 4944
3 5014
3 5241
3 6335
4 337
4 347
4 351
4 367
4 368
4 369
4 370
4 371
4 372
4 373
4 374
4 375
4 376
4 377
4 378
4 379
4 380
4 381
4 382
4 383
4 384
4 385
4 386
4 387
4 388
4 389
4 390
4 391
4 392
4 393
4 394
4 395
4 396
4 397
4 398
4 399
4 400
4 401
4 402
4 403
4 404
4 405
4 406
4 407
4 422
4 423
4 424
4 425
4 426
4 427
4 428
4 429
4 430
4 431
4 432
4 433
4 434
4 435
4 436
4 437
4 438
4 439
4 440
4 441
4 442
4 4170
4 6268
4 6270
4 6271
5 470
5 465
5 466
5 467
5 468
5 469
5 474
5 475
5 490
5 494
5 496
5 497
5 498
5 499
5 500
5 501
5 503
5 504
5 3795
5 4949
5 5312
5 8233
5 8234
5 8235
5 8236
5 8239
5 8240
5 8241
5 8242
6 505
6 506
6 507
6 508
6 509
6 510
6 511
6 512
6 513
6 514
6 515
6 516
6 517
6 518
6 519
6 520
6 521
6 522
6 523
6 524
6 525
6 526
6 527
6 529
6 530
6 531
6 532
6 533
6 534
6 535
6 536
6 537
6 538
6 539
6 540
6 541
6 542
6 543
6 544
6 545
6 546
6 547
6 548
6 549
6 550
6 551
6 552
6 553
6 554
6 555
6 556
6 557
6 558
6 559
6 560
6 561
6 563
6 564
6 565
6 566
6 567
6 568
6 569
6 570
6 571
6 572
6 573
6 574
6 575
6 576
6 577
6 578
6 579
6 580
6 581
6 582
6 583
6 584
6 585
6 586
6 587
6 588
6 589
6 590
6 591
6 592
6 593
6 594
6 595
6 596
6 597
6 598
6 599
6 600
6 601
6 602
6 603
6 604
6 605
6 606
6 607
6 608
6 610
6 611
6 612
6 613
6 614
6 615
6 616
6 617
6 618
6 621
6 622
6 623
6 624
6 625
6 626
6 627
6 628
6 629
6 630
6 631
6 632
6 633
6 634
6 635
6 636
6 637
6 638
6 639
6 640
6 641
6 642
6 643
6 644
6 645
6 646
6 647
6 648
6 649
6 650
6 651
6 652
6 653
6 654
6 655
6 656
6 657
6 658
6 659
6 660
6 661
6 662
6 663
6 664
6 665
6 666
6 667
6 668
6 669
6 670
6 671
6 672
6 673
6 674
6 675
6 676
6 677
6 678
6 679
6 680
6 681
6 682
6 683
6 684
6 685
6 686
6 687
6 688
6 689
6 690
6 691
6 692
6 693
6 694
6 695
6 696
6 697
6 698
6 699
6 700
6 701
6 702
6 703
6 704
6 705
6 706
6 707
6 708
6 709
6 710
6 711
6 712
6 713
6 714
6 716
6 717
6 718
6 719
7 7
7 29
7 165
7 169
7 219
7 274
7 1268
7 1269
7 1273
7 1274
7 1275
7 1276
7 1277
7 1280
7 1281
7 1282
7 1283
7 1284
7 1285
7 1293
7 4936
7 4950
7 5303
7 5347
7 5749
7 6714
7 8249
7 8250
7 8251
7 8253
8 165
8 1316
8 1332
8 1347
8 1361
8 1414
8 4173
8 4292
8 6501
8 8047
9 219
9 387
9 1415
9 1416
9 1417
9 1418
9 1419
9 1420
9 1421
9 1422
9 1423
9 1425
9 1426
9 1427
9 1428
9 1430
9 1431
9 1432
9 1434
9 1435
9 1436
9 1437
9 1438
9 1439
9 1440
9 1441
9 1442
9 1443
9 1444
9 1445
9 1446
9 1447
9 1448
9 1450
9 1451
9 1452
9 1453
9 1454
9 1455
9 1456
9 1457
9 1458
9 1459
9 1460
9 1461
9 1462
9 1463
9 1464
9 1465
9 1466
9 1467
9 1468
9 1469
9 1470
9 1471
9 1472
9 1473
9 1474
9 1475
9 1476
9 1477
9 1478
9 1479
9 1480
9 1481
9 1482
9 1483
9 1484
9 1485
9 1486
9 1487
9 1488
9 1489
9 1490
9 1491
9 1492
9 1494
9 1495
9 1497
9 1498
9 1499
9 1500
9 1501
9 1502
9 1503
9 1504
9 1505
9 1506
9 1507
9 1508
9 1509
9 1510
9 1511
9 1512
9 1513
9 1514
9 1518
9 1519
9 1521
9 1522
9 1523
9 1524
9 1525
9 1527
9 1528
9 1544
9 1545
9 1546
9 1547
9 1548
9 1549
9 1550
9 1551
9 1552
9 1553
9 1554
9 1555
9 1556
9 1558
9 1559
9 1560
9 1561
9 1562
9 1563
9 1565
9 1566
9 1567
9 1568
9 1569
9 1570
10 1571
10 1580
10 1581
10 1582
10 1583
10 1584
10 1585
10 1588
10 1589
10 1590
10 1591
10 1592
10 1593
10 1594
10 1595
10 1596
10 1597
10 1598
10 1599
10 1600
10 1601
10 1602
10 1603
10 1604
10 1605
10 1606
10 1607
10 1608
10 1609
10 1613
10 1614
10 1615
11 1616
11 1617
11 1618
11 1619
11 1620
11 1621
11 1622
11 1623
11 1624
11 1625
11 1626
11 1627
11 1628
11 1629
11 1630
11 1631
11 1632
11 1633
11 1634
11 1635
11 1647
11 1648
11 1649
11 1650
11 1651
11 1652
11 1653
11 1654
11 1655
11 1656
11 1658
11 1659
11 4235
11 4236
11 4237
11 4238
12 1661
12 1662
12 1663
12 1664
12 1665
12 1666
12 1667
12 1668
12 1669
12 1670
12 1671
12 1672
12 1673
12 1674
12 1675
12 1676
12 1677
12 1678
12 1679
12 1680
12 1681
12 1682
12 1683
12 1684
12 1685
12 1687
12 1688
12 1689
12 1690
12 1691
12 1692
12 1693
12 1694
12 1695
12 1696
12 1697
12 1698
12 1699
12 1700
12 1702
12 1703
12 1704
12 1705
12 1706
12 1707
12 1708
12 1709
12 1710
12 1711
12 1712
12 1713
12 1714
12 1715
12 1716
12 1717
12 1718
12 1719
12 1720
12 1721
12 1722
12 1723
12 1724
12 1725
12 1726
12 1727
12 1728
12 1729
12 1730
12 1731
12 1732
12 1733
12 1734
12 1736
12 1738
12 1739
12 1741
12 1742
12 1743
12 1744
12 1745
12 1746
12 1747
12 1748
12 1749
12 1750
12 1751
12 1752
12 1753
12 1754
12 1755
12 1756
12 1757
12 1758
12 1759
12 1760
12 1761
12 1763
12 1764
12 1765
12 1766
12 1767
12 1768
12 1769
12 1770
12 1771
12 1772
12 1781
12 1782
12 1783
12 1784
12 1785
12 1786
12 1787
12 1788
12 1789
12 1790
12 1791
12 1792
12 1793
12 1794
12 1795
12 1796
12 1797
12 1798
12 1799
12 1800
12 1801
12 1802
12 1803
12 1805
12 1806
12 1807
12 1808
12 7047
13 1315
13 1809
13 1812
13 1813
13 1814
13 1815
13 1816
13 1817
13 1818
13 1819
13 1820
13 1821
13 1822
13 1823
13 1824
13 1852
13 1876
13 1878
13 1879
13 1880
13 1881
13 1882
13 1883
13 1884
13 1885
13 1886
13 1887
13 1888
13 1889
13 1891
13 1892
13 1893
13 6913
13 6915
14 306
14 316
14 1491
14 1580
14 1895
14 1896
14 1897
14 1898
14 1899
14 1900
14 1901
14 1902
14 1903
14 1904
14 1905
14 1906
14 1907
14 1908
14 1909
14 1910
14 1911
14 1912
14 1913
14 1914
14 1915
14 1916
14 1917
14 1918
14 1919
14 1920
14 1921
14 1922
14 1923
14 1924
14 1925
14 1926
14 1927
14 1928
14 1929
14 1930
14 1931
14 1932
14 1933
14 1934
14 1935
14 1936
14 1937
14 1938
14 1939
14 1940
14 1941
14 1942
14 1943
14 1944
14 1945
14 1946
14 1947
14 1948
14 1949
14 1950
14 1951
14 1952
14 1953
14 1954
14 1955
14 1956
14 1957
14 1958
14 1959
14 1960
14 1961
14 1962
14 1963
14 1964
14 1965
14 1966
14 1967
14 1969
14 1970
14 1971
14 1972
14 1973
14 1974
14 1975
14 1976
14 1977
14 1978
14 1979
14 1980
14 1981
14 1982
14 4244
15 6463
15 1983
15 1984
15 1985
15 1993
15 2013
15 2016
15 2018
15 2020
15 2021
15 5075
16 2022
16 2023
16 2024
16 2025
16 2026
16 2027
16 2028
16 2029
16 2030
16 2035
16 2036
16 2037
16 2038
16 2039
16 2040
16 2041
16 2042
16 2043
16 2045
16 2046
16 2047
16 2048
16 2049
16 2050
16 2051
16 2052
16 2053
16 2054
16 2055
16 2056
16 2057
16 2058
16 2059
16 2060
16 2061
16 2062
16 2063
16 2064
16 2065
16 2066
16 2067
16 2068
16 2069
16 2070
16 2071
16 2072
16 2073
16 2074
16 2075
16 2076
16 2077
16 2078
16 2081
16 2082
16 2084
16 2086
16 2675
16 2750
16 4249
16 7450
17 2235
17 2236
17 2237
17 2238
17 2239
17 2240
17 2241
17 2242
17 2243
17 2244
17 2245
17 2246
17 2247
17 2248
17 2249
17 2250
17 2251
17 2252
17 2253
17 2254
17 2255
17 2256
17 2257
17 2258
17 2259
17 2260
17 2261
17 2262
17 2263
17 2264
17 2265
17 2266
17 2267
17 2268
17 2269
17 2270
17 2271
17 2272
17 2273
17 2274
17 2275
17 2276
17 2277
17 2278
17 2279
17 2280
17 2281
17 2282
17 2283
17 2284
17 2285
17 2286
17 2287
17 2288
17 2289
17 2290
17 2291
17 2292
17 2293
17 2294
17 2295
17 2296
17 2297
17 2298
17 2299
17 2300
17 2301
17 2302
17 2303
17 2304
17 2305
17 2306
17 2307
17 2308
17 2309
17 2310
17 2311
17 2312
17 2313
17 2314
17 2315
17 2316
17 2317
17 2318
17 2319
17 2320
17 2321
17 2322
17 2323
17 2324
17 2325
17 2326
17 2327
17 2328
17 2329
17 2330
17 2331
17 2332
17 2333
17 2334
17 2335
17 2336
17 2337
17 2338
17 2339
17 2340
17 2341
17 2342
17 2343
17 2344
17 2345
17 2346
17 2347
17 2348
17 2349
17 2350
17 2351
17 2352
17 2353
17 2354
17 2355
17 2356
17 2357
17 2358
17 2359
17 2360
17 2361
17 2362
17 2363
17 2364
17 2365
17 2366
17 2367
17 2368
17 2369
17 2370
17 2371
17 2372
17 2373
17 2374
17 2375
17 2376
17 2377
17 2378
17 2379
17 2380
17 2381
17 2382
17 2383
17 2384
17 2385
17 2386
17 2387
17 2388
17 2389
17 2390
17 2391
17 2392
17 2393
17 2394
17 2395
17 2396
17 2397
17 2398
17 2399
17 2400
17 2401
17 2402
17 2403
17 2404
17 2405
17 2407
17 2408
17 2409
17 2410
17 2411
17 2412
17 2413
17 2414
17 2415
17 2416
17 2417
17 2418
17 2419
17 2420
17 2421
17 2422
17 2423
17 2424
17 2425
17 2426
17 2427
17 2428
17 2429
17 2430
17 2431
17 2432
17 2433
17 2434
17 2435
17 2436
17 2437
17 2438
17 2439
17 2440
17 2441
17 2442
17 2443
17 2444
17 2445
17 2446
17 2447
17 2448
17 2449
17 2450
17 2451
17 2452
17 2453
17 2454
17 2455
17 2456
17 2457
17 2458
17 2459
17 2460
17 2461
17 2462
17 2463
17 2464
17 2465
17 2466
17 2467
17 2468
17 2469
17 2470
17 2471
17 2472
17 2473
17 2474
17 2475
17 2476
17 2477
17 2478
17 2481
17 2482
17 2483
17 2484
17 2485
17 2486
17 2487
17 2488
17 2489
17 2490
17 2491
17 2492
17 2493
17 2494
17 2495
17 2496
17 2497
17 2498
17 2499
17 2500
17 2501
17 2502
17 2503
17 2504
17 2505
17 2506
17 2507
17 2508
17 2509
17 2510
17 2511
17 2512
17 2513
17 2514
17 2515
17 2516
17 2517
17 2518
17 2519
17 2520
17 2521
17 2522
17 2523
17 2524
17 2525
18 2526
18 2527
18 2528
18 2529
18 2531
18 2533
18 2534
18 2535
18 2536
18 2537
18 2538
18 2539
18 2540
18 2541
18 2542
18 2543
18 2544
18 2545
18 2546
18 2547
18 2548
18 2549
18 2550
18 2551
18 2552
18 2553
18 2554
18 2555
18 2556
18 2557
18 2559
18 2560
18 2561
18 2562
18 2563
18 2564
18 2565
18 2566
18 2567
18 2568
18 2570
18 2571
18 2572
18 2573
18 2574
18 2575
18 2576
18 2577
18 2578
18 2579
18 2580
18 2582
18 2583
18 2584
19 2585
19 2586
19 2587
19 2588
19 2589
19 2590
19 2591
19 2592
19 2593
19 2594
19 2595
19 2596
19 2597
19 2598
19 2599
19 2600
19 2601
19 2602
19 2603
19 2604
19 2605
19 2606
19 2607
19 2608
19 2609
19 2610
19 2611
19 2612
19 2613
19 2614
19 2615
19 2616
19 2617
19 2618
19 2619
19 2620
19 2621
19 2622
19 2623
19 2624
19 2625
19 2626
19 2627
19 2628
19 2629
19 2630
19 2631
19 2632
19 2633
19 2634
19 2635
19 2636
19 2637
19 2638
19 2639
19 2640
19 2641
19 2642
19 2643
19 2644
19 2645
19 2646
19 2647
19 2648
19 2649
19 2650
19 2651
19 2652
19 2653
19 2654
19 2655
19 2656
19 2657
19 2658
19 2660
19 2661
19 2662
19 2663
19 2664
19 2665
19 2666
19 2667
19 2668
19 2669
19 2670
19 2671
19 2672
19 2673
19 2674
19 2675
19 2676
19 2677
20 2678
20 2679
20 2680
20 2681
20 2682
20 2683
20 2684
20 2685
20 2686
20 2687
20 2688
20 2689
20 2690
20 2691
20 2692
20 2693
20 2694
20 2695
20 2696
20 2697
20 2698
20 2699
20 2700
20 2701
20 2702
20 2704
20 2708
20 2709
20 2710
20 2711
20 2712
20 2713
20 2714
20 2715
20 2716
20 2717
20 2718
20 2719
20 2720
21 2721
21 2722
21 2723
21 2724
21 2725
21 2726
21 2727
21 2728
21 2729
21 2730
21 2731
21 2732
21 2733
21 2734
21 2735
21 2736
21 2737
21 2738
21 2739
21 2740
21 2741
21 2742
21 2743
21 2744
21 2745
21 2746
21 2747
21 2748
21 2749
21 2750
22 169
22 236
22 288
22 388
22 496
22 497
22 1277
22 2751
22 2752
22 2761
22 2763
22 2767
22 2768
22 2774
22 2782
22 2783
22 2784
22 2785
22 2786
22 2810
22 2811
22 2846
22 2848
22 2849
22 2852
22 2853
22 2859
22 2860
22 2861
22 2862
22 2870
22 2871
22 2878
22 2879
22 2880
22 2881
22 2882
22 2883
22 2884
22 2885
22 2886
22 2887
22 2888
22 2889
22 2890
22 2891
22 2892
22 2893
22 2894
22 2895
22 2896
22 2897
22 2898
22 2899
22 2900
22 2901
22 2902
22 2903
22 2904
22 2905
22 2906
22 2907
22 2908
22 2909
22 2910
22 2911
22 2912
22 2913
22 2914
22 2916
22 2917
22 2918
22 2919
22 2920
22 2921
22 2922
22 2924
22 2925
22 2926
22 2927
22 2928
22 2929
22 2930
22 2931
22 2932
22 2935
22 2938
22 2939
22 2940
22 2941
22 2943
22 2944
22 2945
22 2946
22 2947
22 2948
22 2949
22 2950
22 2951
22 2952
22 2953
22 2954
22 2955
22 2956
22 2957
22 2958
22 2959
22 2960
22 2961
22 2962
22 2963
22 2964
22 2965
22 2966
22 2967
22 2968
22 2969
22 2970
22 2971
22 2972
22 2973
22 2974
22 2975
22 2976
22 2977
22 2978
22 2979
22 2980
22 2981
22 2982
22 2983
22 2984
22 2985
22 2986
22 2987
22 2988
22 2989
22 2990
22 2991
22 2992
22 2993
22 2996
22 2997
22 2999
22 3000
22 3001
22 3002
22 3003
22 3004
22 3005
22 3006
22 3007
22 3008
22 3009
22 3010
22 3011
22 3012
22 3013
22 3014
22 3015
22 3016
22 3017
22 3018
22 3019
22 3020
22 3021
22 3022
22 3023
22 3024
22 3025
22 3026
22 3027
22 3028
22 3029
22 4363
22 4939
22 5970
22 6692
23 3030
23 3031
23 3032
23 3033
23 3034
23 3035
23 3036
23 3037
23 3038
23 3039
23 3040
23 3041
23 3042
23 3043
23 3044
23 3045
23 3046
23 3047
23 3048
23 3049
23 3050
23 3051
23 3052
23 3053
23 3054
23 3055
23 3057
23 3059
23 3060
23 3061
23 3062
23 3063
23 3064
23 3065
23 3066
23 3067
23 3068
23 3069
23 3071
23 3072
23 3073
23 3074
24 1438
24 3120
24 3121
24 3486
24 4668
24 4669
24 4670
24 4671
24 4672
24 4673
24 4674
24 4675
24 4676
24 4680
24 4681
24 4682
24 4684
24 4685
24 4686
24 4687
24 4690
24 4691
24 4692
24 4693
24 4694
24 4695
24 4696
24 4697
24 4698
24 4699
24 4700
24 4701
24 4702
24 4703
24 4704
24 4711
24 4714
24 4715
24 4716
24 4717
26 3271
26 3277
26 3278
26 3282
26 3283
26 3284
26 3285
26 3295
26 3296
26 4848
26 4849
26 4850
26 4851
26 4852
26 4853
26 4854
26 4855
26 4856
26 4857
26 4858
26 4859
26 4860
26 4863
26 4864
26 4865
26 4866
26 4867
26 4868
26 4869
26 4870
26 4871
26 4873
26 4874
26 4875
26 4876
26 4877
26 4882
26 4914
26 5477
26 8245
26 8419
27 3298
27 3299
27 3300
27 3301
27 3302
27 3303
27 3304
27 3305
27 3306
27 3309
27 3310
27 3311
27 3312
27 3313
27 3314
27 3315
27 3316
27 3317
27 3318
27 3319
27 3320
27 3321
27 3322
27 3323
27 3324
27 3325
27 3326
27 3327
27 3328
27 3329
27 3330
27 3331
27 3332
27 3333
27 3334
27 3335
27 3336
27 3337
27 3338
27 3339
27 3340
27 3341
27 3342
27 3343
27 3344
27 3345
27 3346
27 3347
27 3348
27 3349
27 3350
27 3351
27 3354
27 3355
27 3356
27 3357
27 3358
27 3359
27 3360
27 3363
27 3366
27 3367
27 3369
27 3370
27 3371
27 3372
27 3373
27 3374
27 3375
27 3376
27 4721
27 4723
27 6268
28 4173
29 169
29 3847
29 175
29 3219
29 3351
29 3364
29 3388
29 3390
29 3391
29 3392
29 3393
29 3394
29 3395
29 3396
29 3397
29 3398
29 3399
29 3401
29 3402
29 3403
29 3404
29 3405
29 3406
29 3439
29 3951
29 3956
29 3957
29 3958
29 3959
29 3960
29 3961
29 3962
29 3963
29 3964
29 3965
29 3966
29 3967
29 3968
29 3969
29 3970
29 3971
29 3972
29 3973
29 3975
29 3976
29 3977
29 3992
29 3993
29 3995
29 3996
29 3997
29 3998
29 3999
29 4000
29 4001
29 4002
29 4003
29 4004
29 4005
29 4006
29 4007
29 4008
29 4009
29 4010
29 4011
29 4012
29 4013
29 4014
29 4015
29 4016
29 4017
29 4018
29 4019
29 4020
29 4021
29 4022
29 4023
29 4041
29 4045
29 4047
29 4048
29 4049
29 4050
29 4051
29 4052
29 4053
29 4057
29 4058
29 4059
29 4060
29 4065
29 4066
29 4067
29 4068
29 4069
29 4070
29 4077
29 4078
29 4079
29 4080
29 4081
29 4082
29 4135
29 4137
29 4138
29 4139
29 4140
29 5241
29 5291
29 6268
29 7819
29 8455
30 1657
30 3378
30 3379
30 3380
30 3381
30 3382
30 3383
30 3384
30 3385
30 3386
30 3387
30 3416
30 3417
30 3418
30 3419
30 3420
30 3421
30 3422
30 3423
30 3424
30 3425
30 3426
30 3427
30 3428
30 3429
30 3430
30 3431
30 3432
30 3433
30 3434
30 3435
30 3437
30 3438
30 3439
30 3440
30 3443
30 3444
30 3445
30 3446
30 3447
30 3448
30 3449
30 3450
30 3451
30 3452
30 3456
30 3457
30 3458
30 3459
30 3460
30 3461
30 3462
30 3463
30 3464
30 3465
30 3466
30 3469
30 3475
30 3476
30 7450
31 169
31 3505
31 4171
31 297
31 299
31 302
31 3502
31 3503
31 3504
31 3506
31 3507
31 3906
31 3907
31 3908
31 3919
31 3921
31 3922
31 3923
31 3924
31 3925
31 3926
31 3927
31 3928
31 3929
31 3930
31 3931
31 3932
31 3933
31 5239
32 4923
32 5646
32 170
32 1519
32 3509
32 3528
32 3529
32 3532
32 3538
32 3549
32 3553
32 3560
32 3561
32 3562
32 3563
32 3564
32 3565
32 3566
32 3568
32 3570
32 3571
32 3572
32 3573
32 3574
32 3575
32 3576
32 3577
32 3578
32 3579
32 3580
32 3581
32 3589
32 3590
32 3592
32 3593
32 3594
32 3595
32 3596
32 3597
32 3598
32 3600
32 3601
32 3602
32 3603
32 3604
32 3605
32 3606
32 3607
32 3608
32 3609
32 3610
32 3612
32 3613
32 3614
32 3615
32 3617
32 3618
32 3619
32 3620
32 3621
32 3622
32 3623
32 3624
32 3625
32 3626
32 3627
32 3628
32 3629
32 3630
32 3631
32 3632
32 3633
32 3634
32 3635
32 3636
32 3637
32 3639
32 3640
32 3641
32 3789
32 3790
32 3791
32 3792
32 3793
32 3794
32 3894
32 3992
32 4724
32 4915
32 4921
32 5185
32 5567
32 7595
33 3795
33 3796
33 3797
33 4816
33 4817
33 4818
33 4819
33 4820
33 4821
33 4822
33 4823
33 4824
33 4825
33 4826
33 4827
33 4828
33 4829
33 4830
33 4831
33 4832
33 4833
33 4834
33 4835
33 4836
33 4837
33 4838
33 4839
33 4840
33 4841
33 4842
33 4843
33 4844
33 4845
34 309
34 3038
34 3385
34 3799
34 3800
34 3801
34 3802
34 3806
34 3807
34 3808
34 3809
34 3810
34 3811
34 3812
34 3813
34 3814
34 3815
34 3816
34 3817
34 3818
34 3819
34 3820
34 3822
34 3823
34 3824
34 3825
34 3827
34 3828
34 3829
34 3830
34 3831
35 3846
35 3903
35 3832
35 3833
35 3834
35 3835
35 3836
35 3837
35 3838
35 3839
35 3840
35 3841
35 3842
35 3843
35 3844
35 3845
35 7951
35 7952
45 46
52 53
52 54
52 55
52 56
52 57
52 58
52 59
52 60
52 61
63 64
63 65
63 66
63 67
63 68
63 69
63 70
63 72
63 73
63 74
63 75
63 76
63 77
63 78
63 79
63 80
63 81
63 82
63 83
63 84
63 86
63 3863
71 87
83 5502
84 85
87 88
87 89
87 90
87 91
87 92
87 93
87 94
87 95
87 96
87 97
87 98
87 99
87 3869
102 3859
106 3871
107 3871
108 3871
109 3871
110 3871
111 3509
111 3871
112 3871
113 3871
114 3871
115 3871
116 3871
117 3871
118 3871
119 3871
120 3871
121 3871
122 3871
124 3871
126 3871
127 3871
128 3871
128 129
128 130
131 3871
132 3871
133 3871
134 3871
135 3871
136 3871
137 3871
138 3871
138 139
138 140
138 141
139 3871
142 3871
147 3476
148 3847
149 4830
150 274
151 5710
153 6864
153 6866
153 6868
162 4298
162 6444
162 165
162 274
162 288
162 333
162 1293
162 4942
162 4944
162 5212
165 5468
165 3480
165 6500
166 5413
167 4298
168 4298
169 174
169 175
169 176
169 194
169 219
169 220
169 223
169 224
169 225
169 226
169 227
169 228
169 229
169 230
169 231
169 232
169 233
169 234
169 235
169 236
169 237
169 238
169 239
169 240
169 241
169 243
169 244
169 245
169 246
169 252
169 263
169 264
169 273
169 274
169 279
169 280
169 281
169 285
169 287
169 288
169 290
169 296
169 307
169 316
169 325
169 328
169 329
169 330
169 331
169 334
169 335
169 336
169 1293
169 1296
169 3634
169 3847
169 3895
169 3896
169 3902
169 3903
169 3904
169 3905
169 3950
169 4939
169 4941
169 4944
169 5014
169 5065
169 5086
169 5207
169 5212
169 5217
169 5356
169 5603
169 5649
169 8262
169 8303
169 8351
169 8352
169 8354
170 172
170 173
170 3892
170 3893
170 3897
170 3898
170 3899
170 3900
170 3901
176 182
176 202
176 3940
176 3941
176 6805
177 3940
178 3940
179 3940
180 3940
181 1811
181 3940
183 3940
184 3940
185 3940
186 3940
187 3940
188 3940
189 3941
190 3941
191 3941
192 3941
193 3941
194 3941
195 3941
196 3941
197 3941
198 3941
199 3941
200 3941
201 3941
204 3950
205 3950
207 3950
209 3950
210 3950
211 3950
212 3950
213 3950
214 3950
215 3950
217 3950
221 334
236 2839
236 2840
246 247
246 248
246 249
246 250
246 251
246 253
246 254
246 255
246 256
246 257
246 258
246 259
246 260
246 261
246 262
264 4941
264 265
264 266
264 267
264 268
264 269
264 270
264 271
264 272
274 275
274 276
274 277
274 278
281 4941
284 3902
286 3902
288 3902
288 8303
288 4966
289 3902
298 3907
300 3907
302 3907
303 3907
304 3908
308 3485
309 4976
309 5212
309 5807
311 5212
311 8352
312 1952
312 6798
314 4816
314 6753
314 4658
315 5591
316 1979
319 6113
319 6114
319 6225
320 5828
320 5360
320 7111
320 7594
323 3847
323 5710
325 5091
325 1872
325 4537
325 4538
325 4539
325 4540
325 4541
325 4542
325 4543
325 4544
325 4545
325 4556
325 4557
325 4558
325 4559
325 4560
325 4561
325 4562
325 4563
325 4564
325 4565
325 4566
325 4567
325 4568
325 4569
325 4570
325 4571
325 4572
325 4573
325 4574
325 4575
325 4576
325 4577
325 4578
325 4579
325 4580
325 4581
325 4582
325 4583
325 4584
325 4585
325 4586
325 4587
325 4588
325 4589
325 4590
325 4591
325 4592
325 4593
325 4594
325 4595
325 4596
325 4597
325 4598
325 4599
325 4600
325 4601
325 4602
325 4603
325 4604
325 4605
325 4606
325 4607
325 4608
325 4609
325 4610
325 4611
325 4612
325 4613
325 4614
325 4615
325 4616
325 4617
325 4618
325 4619
325 4620
325 4621
325 4622
325 4623
325 4624
325 4625
325 4626
325 4627
325 4628
325 4629
325 4630
325 4631
325 4632
325 4633
325 4634
325 4635
325 4636
325 4637
325 4638
325 4639
325 4640
325 4641
325 4642
325 4643
325 4644
325 4645
325 4646
325 4647
325 4648
325 4649
325 4650
325 4651
325 4652
325 4653
325 4654
325 4655
325 4656
325 4657
325 4658
325 4659
325 4660
325 4661
325 4662
325 4663
325 4664
325 4665
325 4666
325 4828
325 7216
325 7217
325 7593
328 4941
334 4173
334 4941
334 5920
336 5086
336 5417
336 8304
337 338
337 339
337 340
337 341
337 342
337 343
337 344
337 345
337 346
347 348
347 349
347 350
351 352
351 353
351 354
351 355
351 356
351 357
351 358
351 359
351 360
351 361
351 362
351 363
351 364
351 365
351 366
351 7598
389 5028
407 408
407 409
407 410
407 411
407 412
407 413
407 414
407 415
407 416
407 417
407 418
407 419
407 420
407 421
407 6998
427 3847
428 3847
431 6972
438 7090
442 443
442 444
442 445
442 446
442 447
442 448
442 449
442 450
442 451
442 452
442 453
442 454
442 455
442 456
442 457
442 458
442 459
442 460
442 461
442 462
442 463
442 464
442 6307
444 5818
470 1610
470 471
470 473
470 474
470 475
470 482
470 483
470 484
470 5496
474 4239
475 476
475 477
475 478
475 480
484 2784
484 8406
490 491
490 492
490 493
490 2832
490 2833
490 2834
608 609
720 4172
721 4172
722 4172
723 4172
724 4172
725 4172
726 4172
727 4172
728 4172
729 4172
730 4172
731 4172
732 4172
733 4172
734 4172
735 4172
736 4172
737 4172
738 4172
739 4172
740 4172
741 4172
742 4172
743 4172
744 4172
745 4172
746 4172
747 4172
748 4172
749 4172
750 4172
751 4172
752 4172
753 4172
754 4172
755 4172
756 4172
757 4172
758 4172
759 4172
760 4172
761 4172
762 4172
763 4172
764 4172
765 4172
766 4172
767 4172
768 4172
769 4172
770 4172
771 4172
772 4172
773 4172
774 4172
775 4172
776 4172
777 4172
778 4172
779 4172
780 4172
781 4172
782 4172
783 4172
784 4172
785 4172
786 4172
787 4172
788 4172
789 4172
790 4172
791 4172
792 4172
793 4172
794 4172
795 4172
796 4172
797 4172
798 4172
799 4172
800 4172
801 4172
802 4172
803 4172
804 4172
805 4172
806 4172
807 4172
808 4172
809 4172
810 4172
811 4172
812 4172
813 4172
814 4172
815 4172
816 4172
817 4172
818 4172
819 4172
820 4172
821 4172
822 4172
823 4172
824 4172
825 4172
826 4172
827 4172
828 4172
829 4172
830 4172
831 4172
832 4172
833 4172
834 4172
835 4172
836 4172
837 4172
838 4172
839 4172
840 4172
841 4172
842 4172
843 4172
844 4172
845 4172
846 4172
847 4172
848 4172
849 4172
850 4172
851 4172
852 4172
853 4172
854 4172
855 4172
856 4172
857 4172
858 4172
859 4172
860 4172
861 4172
862 4172
863 4172
864 4172
865 4172
866 4172
867 4172
868 4172
869 4172
870 4172
871 4172
872 4172
873 4172
874 4172
875 4172
876 4172
877 4172
878 4172
879 4172
880 4172
881 4172
882 4172
883 4172
884 4172
885 4172
886 4172
887 4172
888 4172
889 4172
890 4172
891 4172
892 4172
893 4172
894 4172
895 4172
896 4172
897 4172
898 4172
899 4172
900 4172
901 4172
902 4172
903 4172
904 4172
905 4172
906 4172
907 4172
908 4172
909 4172
910 4172
911 4172
912 4172
913 4172
914 4172
915 4172
916 4172
917 4172
918 4172
919 4172
920 4172
921 4172
922 4172
923 4172
924 4172
925 4172
926 4172
927 4172
928 4172
929 4172
930 4172
931 4172
932 4172
933 4172
934 4172
935 4172
936 4172
937 4172
938 4172
939 4172
940 4172
941 4172
942 4172
943 4172
944 4172
945 4172
946 4172
947 4172
948 4172
949 4172
950 4172
951 4172
952 4172
953 4172
954 4172
955 4172
956 4172
957 4172
958 4172
959 4172
960 4172
961 4172
962 4172
963 4172
964 4172
965 4172
966 4172
967 4172
968 4172
969 4172
970 4172
971 4172
972 4172
973 4172
974 4172
975 4172
976 4172
977 4172
978 4172
979 4172
980 4172
981 4172
982 4172
983 4172
984 4172
985 4172
986 4172
987 4172
988 4172
989 4172
990 4172
991 4172
992 4172
993 4172
994 4172
995 4172
996 4172
997 4172
998 4172
999 4172
1000 4172
1001 4172
1002 4172
1003 4172
1004 4172
1005 4172
1006 4172
1007 4172
1008 4172
1009 4172
1010 4172
1011 4172
1012 4172
1013 4172
1014 4172
1015 4172
1016 4172
1017 4172
1018 4172
1019 4172
1020 4172
1021 4172
1022 4172
1023 4172
1024 4172
1025 4172
1026 4172
1027 4172
1028 4172
1029 4172
1030 4172
1031 4172
1032 4172
1033 4172
1034 4172
1035 4172
1036 4172
1037 4172
1038 4172
1039 4172
1040 4172
1041 4172
1042 4172
1043 4172
1044 4172
1045 4172
1046 4172
1047 4172
1048 4172
1049 4172
1050 4172
1051 4172
1052 4172
1053 4172
1054 4172
1055 4172
1056 4172
1057 4172
1058 4172
1059 4172
1060 4172
1061 4172
1062 4172
1063 4172
1064 4172
1065 4172
1066 4172
1067 4172
1068 4172
1069 4172
1070 4172
1071 4172
1072 4172
1073 4172
1074 4172
1075 4172
1076 4172
1077 4172
1078 4172
1079 4172
1080 4172
1081 4172
1082 4172
1083 4172
1084 4172
1085 4172
1086 4172
1087 4172
1088 4172
1089 4172
1090 4172
1091 4172
1092 4172
1093 4172
1094 4172
1095 4172
1096 4172
1097 4172
1098 4172
1099 4172
1100 4172
1101 4172
1102 4172
1103 4172
1104 4172
1105 4172
1106 4172
1107 4172
1108 4172
1109 4172
1110 4172
1111 4172
1112 4172
1113 4172
1114 4172
1115 4172
1116 4172
1117 4172
1118 4172
1119 4172
1120 4172
1121 4172
1122 4172
1123 4172
1124 4172
1125 4172
1126 4172
1127 4172
1128 4172
1129 4172
1130 4172
1131 4172
1132 4172
1133 4172
1134 4172
1135 4172
1136 4172
1137 4172
1138 4172
1139 4172
1140 4172
1141 4172
1142 4172
1143 4172
1144 4172
1145 4172
1146 4172
1147 4172
1148 4172
1149 4172
1150 4172
1151 4172
1152 4172
1153 4172
1154 4172
1155 4172
1156 3896
1156 4172
1157 4172
1158 4172
1159 4172
1160 4172
1161 4172
1162 4172
1163 4172
1164 4172
1165 4172
1166 4172
1167 4172
1168 4172
1169 4172
1170 4172
1171 4172
1172 4172
1173 4172
1174 4172
1175 4172
1176 4172
1177 4172
1178 4172
1179 4172
1180 4172
1181 4172
1182 4172
1183 4172
1184 4172
1185 4172
1186 4172
1187 4172
1188 4172
1189 4172
1190 4172
1191 4172
1192 4172
1193 4172
1194 4172
1195 4172
1196 4172
1197 4172
1198 4172
1199 4172
1200 4172
1201 4172
1202 4172
1203 4172
1204 4172
1205 4172
1206 4172
1207 4172
1208 4172
1209 4172
1210 4172
1211 4172
1212 4172
1213 4172
1214 4172
1215 4172
1216 4172
1217 4172
1218 4172
1219 4172
1220 4172
1221 4172
1222 4172
1223 4172
1224 4172
1225 4172
1226 4172
1227 4172
1228 4172
1229 4172
1230 4172
1231 4172
1232 4172
1233 4172
1234 4172
1235 4172
1236 4172
1237 4172
1238 4172
1239 4172
1240 4172
1241 4172
1242 4172
1242 3219
1243 4172
1244 4172
1245 4172
1246 4172
1247 4172
1248 4172
1249 4172
1250 4172
1251 4172
1252 4172
1253 4172
1254 4172
1255 4172
1256 4172
1257 4172
1258 4172
1259 4172
1260 4172
1261 4172
1262 4172
1263 4172
1264 4172
1265 4172
1265 8226
1266 4172
1266 5827
1280 4173
1282 1285
1283 1285
1285 1286
1288 4173
1289 4173
1290 4173
1292 4173
1293 4173
1293 5486
1294 4173
1295 4173
1296 4173
1297 4173
1298 4173
1299 4173
1307 4173
1311 4173
1313 4173
1313 1314
1313 6500
1314 5706
1315 4173
1316 1317
1316 1318
1316 1319
1316 1320
1316 1321
1316 1322
1316 1323
1316 1324
1316 1325
1316 1326
1316 1327
1316 1328
1316 1329
1316 1330
1316 1331
1332 1333
1332 1334
1332 1335
1332 1336
1332 1337
1332 1338
1332 1339
1332 1340
1332 1341
1332 1342
1332 1343
1332 1344
1332 1345
1332 1346
1347 1348
1347 1349
1347 1350
1347 1351
1347 1352
1347 1353
1347 1354
1347 1355
1347 1356
1347 1357
1347 1358
1347 1360
1361 1362
1361 1363
1361 1364
1361 1365
1361 1366
1361 1367
1361 1368
1361 1369
1361 1370
1361 1371
1361 1372
1361 1373
1361 1374
1361 1375
1361 1376
1361 1377
1361 1378
1361 1379
1361 1380
1361 1381
1361 1382
1361 1383
1361 1384
1361 1385
1361 1386
1361 1387
1361 1388
1361 1389
1361 1390
1361 1391
1361 1392
1361 1393
1361 1394
1361 1395
1361 1396
1361 1397
1361 1398
1361 1399
1361 1400
1361 1401
1361 1402
1361 1403
1361 1404
1361 1405
1361 1406
1361 1407
1361 1408
1361 1409
1361 1410
1361 1411
1361 1412
1361 1413
1491 4176
1491 4177
1492 1610
1514 1515
1514 1516
1514 1517
1520 4816
1528 1529
1528 1530
1528 1531
1528 1532
1528 1533
1528 1534
1528 1535
1528 1536
1528 1537
1528 1538
1528 1539
1528 1540
1528 1541
1528 1542
1528 1543
1571 1572
1571 1573
1571 1575
1571 1576
1571 1577
1571 1578
1571 1579
1573 1574
1610 1828
1610 1837
1610 1845
1610 1846
1610 1847
1610 1848
1610 4240
1635 1636
1635 1637
1635 1638
1635 1639
1635 1640
1635 1641
1635 1642
1635 1643
1635 1644
1635 1645
1635 1646
1772 1773
1772 1774
1772 1775
1772 1776
1772 1777
1772 1778
1772 1779
1772 1780
1804 3476
1804 3467
1804 3468
1809 1810
1809 1811
1811 8399
1846 2810
1852 1853
1852 1854
1852 1855
1852 1856
1852 1857
1852 1858
1852 1859
1852 1860
1852 1861
1852 1862
1852 1863
1852 1864
1852 1865
1852 1866
1852 1867
1852 1868
1853 5560
1853 8324
1853 8326
1868 1869
1868 1870
1868 1871
1868 1872
1868 1873
1868 1874
1870 7081
1872 4925
1872 6050
1872 7711
1872 7712
1872 7713
1872 7714
1874 6479
1878 1879
1878 1889
1878 1890
1878 3397
1878 5633
1878 5826
1878 7381
1878 7382
1879 8494
1887 7011
1887 7759
1887 7760
1889 4822
1893 6007
1952 5075
1979 7942
1983 1984
1983 1985
1983 1986
1986 1987
1986 1988
1986 1989
1989 1990
1989 1991
1989 1992
1993 1994
1993 1995
1993 1996
1993 1997
1993 1998
1999 2000
1999 2001
1999 2002
1999 2003
1999 2004
1999 2005
1999 2007
1999 2008
1999 2009
1999 2010
1999 2011
1999 2012
2013 2014
2013 2015
2016 2017
2018 2019
2019 5874
2030 2031
2030 2032
2030 2033
2030 2034
2043 2044
2088 4297
2089 4297
2090 4297
2091 4297
2092 4297
2093 4297
2094 4297
2095 4297
2096 4297
2097 4297
2098 4297
2100 4297
2101 4297
2102 4297
2103 4297
2104 4297
2105 4297
2106 4297
2107 4297
2108 4297
2109 4297
2110 4297
2111 4297
2112 4297
2113 4297
2114 4297
2115 4297
2116 4297
2117 4297
2118 4297
2119 4297
2120 4297
2121 4297
2122 4297
2123 4297
2124 4297
2125 4297
2126 4297
2127 4297
2128 4297
2129 4297
2130 4297
2131 4297
2132 4297
2133 4297
2134 4297
2135 4297
2136 4297
2137 4297
2138 4297
2139 4297
2140 4297
2141 4297
2142 4297
2143 4297
2144 4297
2145 4297
2146 4297
2147 4297
2148 4297
2149 4297
2150 4297
2151 4297
2152 4297
2153 4297
2154 4297
2155 4297
2156 4297
2157 4297
2158 4297
2159 4297
2160 4297
2161 4297
2162 4297
2163 4297
2164 4297
2165 4297
2166 4297
2167 4297
2168 4297
2169 4297
2170 4297
2171 4297
2172 4297
2173 4297
2174 4297
2175 4297
2176 4297
2177 4297
2178 4297
2179 4297
2180 4297
2181 4297
2182 4297
2183 4297
2184 4297
2185 4297
2186 4297
2187 4297
2188 4297
2189 4297
2190 4297
2191 4297
2192 4297
2193 4297
2194 4297
2195 4297
2196 4297
2197 4297
2198 4297
2199 4297
2200 4297
2201 4297
2202 4297
2203 4297
2204 4297
2205 4297
2206 4297
2207 4297
2208 4297
2209 4297
2210 4297
2211 4297
2212 4297
2213 4297
2214 4297
2215 4297
2216 4297
2217 4297
2218 4297
2219 4297
2220 4297
2221 4297
2222 4297
2223 4297
2224 4297
2225 4297
2226 4297
2227 4297
2228 4297
2229 4297
2230 4297
2231 4297
2232 4297
2233 4297
2234 4297
2567 7219
2752 2753
2752 2754
2752 2755
2752 2756
2752 2757
2752 2758
2752 2759
2752 2760
2761 2762
2761 2764
2761 2765
2761 2766
2768 2769
2768 2770
2768 2771
2768 2772
2768 2773
2774 2775
2774 2776
2774 2777
2774 2778
2774 2779
2774 2781
2787 4363
2788 4363
2789 4363
2790 4363
2791 4363
2792 4363
2793 4363
2794 4363
2795 4363
2796 4363
2797 4363
2798 4363
2799 4363
2800 4363
2801 4363
2802 4363
2803 4363
2804 4363
2805 4363
2806 4363
2807 4363
2808 4363
2809 4363
2810 2812
2810 2813
2810 2814
2810 2815
2810 2816
2810 2817
2810 2818
2810 2819
2810 2820
2810 2821
2810 2822
2810 2825
2810 2826
2810 2830
2810 2841
2810 2842
2811 4364
2811 5528
2811 8202
2846 4171
2846 2850
2846 2851
2846 2854
2846 2855
2846 2856
2846 2857
2846 2858
2859 3538
2862 2863
2862 2864
2862 2865
2862 2866
2862 2867
2862 2868
2862 2869
2871 2872
2871 2873
2871 2874
2871 2875
2871 2876
2871 2877
2932 2933
2932 2934
2935 2936
2935 2937
3019 5915
3023 5853
3023 5972
3044 6692
3055 3056
3057 3058
3135 4171
3135 3304
3136 4171
3137 4171
3138 4171
3139 4171
3140 4171
3141 4171
3142 4171
3144 4171
3145 4171
3146 4171
3147 4171
3148 4171
3149 4171
3150 4171
3152 4171
3153 4171
3153 3154
3153 3155
3153 3156
3153 3157
3153 3158
3153 3159
3153 3160
3153 3161
3153 3162
3153 3163
3153 3164
3153 3165
3153 3166
3153 3167
3153 3168
3153 3169
3153 3180
3153 4810
3153 6307
3153 7465
3170 4171
3171 4171
3183 7875
3228 4171
3229 4171
3230 4171
3302 3304
3302 6779
3302 6857
3304 8442
3304 3308
3452 3453
3452 3454
3476 3478
3476 3481
3476 3482
3476 3483
3476 3485
3476 3486
3476 3487
3476 3489
3476 4249
3478 5156
3478 5468
3478 6607
3478 5851
3485 6628
3486 5307
3486 8243
3486 8248
3486 4522
3486 7511
3486 8396
3486 8397
3487 7548
3487 7549
3499 3907
3500 3906
3503 3896
3505 3506
3505 3908
3505 4922
3505 5236
3505 5240
3505 5637
3505 7815
3505 8443
3505 8445
3505 8446
3505 8447
3505 8448
3505 8449
3505 8450
3505 8451
3505 8452
3505 8453
3505 8454
3506 3908
3506 4816
3506 4921
3506 5637
3506 7812
3506 7814
3506 7815
3506 8450
3507 3906
3507 3913
3507 3914
3507 3915
3508 3908
3509 3510
3509 3511
3509 3512
3509 3513
3509 3514
3509 3515
3509 3516
3509 3517
3509 3518
3509 3519
3509 3520
3509 3521
3509 3522
3509 3523
3509 3525
3509 3526
3509 3527
3529 3530
3529 3531
3529 3532
3529 3533
3529 3534
3529 3536
3529 3537
3538 3539
3538 3540
3538 3541
3538 3542
3538 3543
3538 3544
3538 3545
3538 3546
3538 3547
3538 3548
3549 3550
3549 3551
3549 3552
3553 3554
3553 3555
3553 3556
3553 3557
3553 3558
3553 3559
3560 4727
3581 3582
3581 3583
3581 3584
3581 3585
3581 3586
3581 3587
3581 3588
3601 8413
3637 4732
3637 5376
3640 4367
3640 4921
3641 3642
3641 3643
3641 3644
3641 3645
3641 3646
3641 3647
3641 3648
3641 3649
3641 3650
3641 3651
3641 3652
3641 3653
3641 3654
3641 3655
3641 3656
3641 3657
3641 3658
3641 3659
3641 3660
3641 3661
3641 3662
3641 3663
3641 3664
3641 3665
3641 3666
3641 3667
3641 3668
3641 3669
3641 3670
3641 3671
3641 3672
3641 3673
3641 3674
3641 3675
3641 3676
3641 3677
3641 3678
3641 3679
3641 3680
3641 3681
3641 3682
3641 3683
3641 3684
3641 3685
3641 3686
3641 3687
3641 3688
3641 3689
3641 3690
3641 3691
3641 3692
3641 3693
3641 3694
3641 3695
3641 3696
3641 3697
3641 3698
3641 3699
3641 3700
3641 3701
3641 3702
3641 3703
3641 3704
3641 3705
3641 3706
3641 3707
3641 3708
3641 3709
3641 3710
3641 3711
3641 3712
3641 3713
3641 3714
3641 3715
3641 3716
3641 3717
3641 3718
3641 3719
3641 3720
3641 3721
3641 3722
3641 3723
3641 3724
3641 3725
3641 3726
3641 3727
3641 3728
3641 3729
3641 3730
3641 3731
3641 3732
3641 3733
3641 3734
3641 3735
3641 3736
3641 3737
3641 3738
3641 3739
3641 3740
3641 3741
3641 3742
3641 3743
3641 3744
3641 3745
3641 3746
3641 3747
3641 3748
3641 3749
3641 3750
3641 3751
3641 3752
3641 3753
3641 3754
3641 3755
3641 3756
3641 3757
3641 3758
3641 3759
3641 3760
3641 3761
3641 3762
3641 3763
3641 3764
3641 3765
3641 3766
3641 3767
3641 3768
3641 3769
3641 3770
3641 3771
3641 3772
3641 3773
3641 3774
3641 3775
3641 3776
3641 3777
3641 3778
3641 3779
3641 3780
3641 3781
3641 3782
3641 3783
3641 3784
3641 3785
3641 3786
3641 3787
3641 3788
3644 5185
3677 5185
3789 4734
3790 5185
3846 4806
3846 5665
3846 5730
3846 5770
3846 6506
3846 7683
3846 7684
3846 7685
3848 3859
3849 3850
3849 3851
3849 3852
3849 3853
3849 3854
3849 3855
3849 3856
3849 3857
3849 3858
3859 3861
3859 3862
3871 3874
3871 3875
3871 3876
3871 3877
3879 5128
3880 3903
3880 7460
3880 4936
3886 4933
3886 4934
3888 5317
3888 5012
3888 5092
3888 5095
3896 4191
3896 4192
3896 4193
3896 4195
3896 4198
3896 4204
3896 4205
3896 4206
3896 4207
3896 4208
3896 4209
3896 4210
3896 4211
3896 4212
3896 4213
3896 4214
3896 4215
3896 4216
3896 4217
3896 4218
3896 4219
3896 4220
3896 4221
3896 4222
3896 4223
3896 4224
3896 4225
3896 4226
3896 4227
3896 4228
3896 4229
3896 4230
3896 4231
3896 4232
3896 4233
3896 4234
3896 6749
3896 8276
3896 8277
3896 8278
3896 8283
3896 8285
3896 8286
3896 8289
3896 8295
3902 7836
3903 5188
3903 5326
3903 8329
3905 5235
3905 5603
3905 8302
3905 7761
3906 3909
3907 3916
3908 3919
3908 3920
3909 3910
3909 3911
3909 3912
3909 6793
3916 3917
3916 3918
3919 5788
3934 3941
3935 3941
3936 3941
3937 3941
3938 3941
3939 3941
3941 3942
3943 3944
3943 3945
3943 3946
3943 3947
3943 3948
3943 3949
3951 3952
3951 3953
3951 3954
3951 3955
3978 3991
3979 3992
3980 3993
3982 3995
3983 3996
3984 3997
3986 3999
3987 4000
3988 4001
3989 4002
3990 4003
3993 6196
4003 4941
4017 4919
4023 4024
4023 4025
4023 4026
4023 4027
4023 4028
4023 4029
4023 4030
4023 4031
4023 4032
4023 4033
4023 4037
4023 4038
4033 4034
4033 4035
4033 4036
4038 4039
4038 4040
4041 4042
4041 4043
4041 4044
4045 4046
4053 4054
4053 4055
4053 4056
4060 4061
4060 4062
4060 4063
4060 4064
4082 4083
4082 4084
4082 4085
4082 4086
4082 4087
4082 4088
4082 4089
4082 4090
4082 4091
4082 4092
4082 4093
4082 4094
4082 4095
4082 4096
4082 4097
4082 4098
4082 4100
4082 4101
4082 4103
4082 4104
4082 4105
4082 4106
4082 4107
4082 4108
4082 4109
4082 4110
4082 4111
4082 4112
4082 4113
4082 4114
4082 4115
4082 4116
4082 4117
4082 4118
4082 4119
4082 4120
4082 4121
4082 4122
4082 4123
4082 4124
4082 4125
4082 4126
4082 4127
4082 4128
4082 4129
4082 4130
4082 4131
4082 4132
4082 4133
4082 4134
4093 7512
4115 4925
4115 5878
4115 6642
4115 6753
4128 5119
4140 4141
4140 4142
4140 4143
4140 4144
4140 4145
4140 4146
4140 4147
4140 4148
4140 4149
4140 4150
4140 4151
4140 4152
4140 4153
4140 4154
4140 4155
4140 4156
4140 4157
4140 4158
4140 4159
4140 4160
4140 4161
4140 4162
4140 4163
4149 4919
4149 7438
4165 6699
4165 6873
4171 4735
4171 4737
4171 4755
4171 4785
4171 4803
4171 4804
4171 4805
4171 4806
4171 4807
4171 4808
4171 4809
4171 4812
4171 4813
4171 4815
4171 5665
4171 7653
4171 7850
4172 4916
4172 4986
4172 5339
4172 5460
4172 8226
4173 5303
4208 8278
4209 8278
4215 8278
4219 8278
4241 7921
4242 5828
4242 7380
4250 4251
4250 4252
4250 4253
4250 4254
4250 4255
4250 4256
4250 4257
4250 4258
4250 4259
4250 4260
4250 4261
4250 4262
4250 4265
4250 4266
4250 4267
4250 4268
4250 4269
4250 4270
4250 4271
4250 4272
4250 4273
4250 4274
4250 4275
4250 4276
4250 4277
4250 4278
4250 4279
4250 4280
4250 4281
4250 4282
4250 4283
4250 4284
4250 4285
4250 4286
4250 4287
4250 4288
4250 4289
4250 4290
4250 4291
4250 4292
4250 4293
4262 5403
4262 4263
4262 4264
4293 4294
4293 4295
4293 4296
4298 4299
4298 4300
4298 4301
4298 4302
4298 4303
4298 4304
4298 4305
4298 4306
4298 4307
4298 4308
4298 4309
4298 4310
4298 4312
4298 4313
4298 4314
4298 4315
4298 4316
4298 4317
4298 4318
4298 4319
4298 4320
4298 4321
4298 4322
4298 4323
4298 4324
4298 4325
4298 4326
4298 4327
4298 4328
4298 4329
4298 4330
4298 4331
4298 4332
4298 4333
4298 4334
4298 4335
4298 4336
4298 4337
4298 4338
4298 4339
4298 4340
4298 4341
4298 4342
4298 4343
4298 4344
4298 4345
4298 4346
4298 4347
4298 4348
4298 4349
4298 4350
4298 4351
4298 4352
4298 4354
4298 4355
4298 4356
4298 4357
4298 4358
4298 4359
4298 4360
4298 4361
4363 4998
4365 7270
4366 4369
4366 4455
4366 4456
4366 4457
4366 4458
4366 4459
4366 4460
4366 4461
4366 4462
4366 4463
4366 4464
4366 4465
4366 4466
4366 4468
4366 4469
4366 4470
4366 4471
4366 4472
4366 4473
4366 4474
4366 4475
4366 4476
4366 4477
4366 4478
4366 4479
4366 4519
4366 4522
4366 4530
4366 4533
4366 4536
4367 4368
4367 6330
4369 4370
4369 4371
4369 4372
4369 4373
4369 4374
4369 4375
4369 4376
4369 4377
4369 4378
4369 4379
4369 4380
4369 4381
4369 4382
4369 4383
4369 4384
4369 4385
4369 4386
4369 4387
4369 4388
4369 4389
4369 4390
4369 4391
4369 4392
4369 4393
4369 4394
4369 4395
4369 4396
4369 4397
4369 4398
4369 4399
4369 4400
4369 4401
4369 4402
4369 4403
4369 4404
4369 4405
4369 4406
4369 4407
4369 4408
4369 4409
4369 4410
4369 4411
4369 4412
4369 4414
4369 4415
4369 4416
4369 4417
4369 4418
4369 4419
4369 4421
4369 4422
4369 4423
4369 4424
4369 4425
4369 4426
4369 4427
4369 4428
4369 4429
4369 4430
4369 4431
4369 4432
4369 4433
4369 4434
4369 4435
4369 4436
4369 4437
4369 4438
4369 4439
4369 4440
4369 4441
4369 4442
4369 4443
4369 4444
4369 4445
4369 4446
4369 4447
4447 4448
4447 4449
4447 4450
4447 4451
4447 4452
4447 4453
4447 4454
4479 4480
4479 4481
4479 4482
4479 4483
4479 4484
4479 4485
4479 4486
4479 4487
4479 4488
4479 4489
4479 4490
4479 4491
4479 4492
4479 4493
4479 4494
4479 4495
4479 4496
4479 4497
4479 4498
4479 4499
4479 4500
4479 4501
4479 4502
4479 4503
4479 4504
4479 4505
4479 4506
4479 4507
4479 4508
4479 4509
4479 4510
4479 4511
4479 4512
4479 4513
4479 4514
4479 4515
4479 4516
4479 4517
4479 4518
4519 4520
4519 4521
4522 4523
4522 4524
4522 4525
4522 4526
4522 4527
4522 4528
4522 4529
4530 4531
4530 4532
4533 4534
4533 4535
4545 4546
4545 4547
4545 4548
4545 4549
4545 4550
4545 4551
4545 4552
4545 4553
4545 4554
4545 4555
4646 6421
4652 6570
4652 6573
4652 6574
4657 5982
4658 6400
4666 6189
4668 5791
4676 4677
4676 4678
4704 4705
4704 4706
4704 4707
4704 4708
4704 4709
4704 4710
4732 5261
4734 5660
4737 4738
4737 4739
4737 4740
4737 4741
4737 4742
4737 4743
4737 4744
4737 4745
4737 4746
4737 4747
4737 4748
4737 4749
4737 4750
4737 4751
4737 4752
4737 4753
4737 4754
4742 4798
4747 5593
4755 4756
4755 4759
4755 4764
4755 4776
4756 4757
4756 4758
4759 4760
4759 4761
4759 4762
4759 4763
4764 4765
4764 4766
4764 4767
4764 4768
4764 4769
4764 4770
4764 4771
4764 4772
4764 4773
4764 4774
4764 4775
4765 4786
4771 4786
4773 4786
4776 4777
4776 4778
4776 4779
4776 4780
4776 4781
4776 4782
4776 4783
4776 4784
4785 4786
4785 4796
4785 4798
4786 4787
4786 4788
4786 4792
4786 4793
4786 4794
4786 4795
4796 4797
4798 4799
4798 4800
4798 4802
4809 6501
4816 5039
4816 5248
4816 5283
4816 5405
4816 5493
4816 5498
4816 5667
4816 5682
4816 5721
4816 5786
4816 5955
4816 6137
4816 6153
4816 6769
4816 6870
4816 6919
4816 7342
4816 7726
4816 7931
4818 5966
4818 5967
4822 5147
4822 5344
4822 4846
4822 5483
4822 5691
4822 5826
4822 6662
4822 6663
4822 6664
4822 6665
4822 6666
4822 6667
4822 6668
4822 6669
4822 6670
4822 6674
4822 6675
4822 6676
4822 6678
4823 4830
4823 6658
4825 6550
4825 6551
4830 4844
4830 5190
4830 8306
4830 8312
4830 5127
4830 8307
4830 8308
4830 8309
4830 8310
4830 8311
4830 8313
4830 8314
4830 8315
4830 8316
4830 8317
4830 8318
4837 7532
4841 5876
4844 6692
4844 8314
4844 8317
4844 8486
4921 5109
4921 6583
4921 6585
4921 6586
4925 5396
4925 6264
4926 5090
4929 5090
4932 5952
4932 7268
4940 5248
4940 6335
4941 5242
4941 5639
4941 8463
4941 8466
4941 8467
4941 8468
4941 8469
4941 8470
4941 8471
4941 8472
4941 8473
4941 8474
4941 8475
4941 8476
4941 8477
4941 8478
4941 8479
4941 8481
4941 8482
4945 5283
4949 5086
4953 4954
4953 5430
4953 5818
4953 5820
4957 4965
4957 5310
4957 6447
4957 8231
4957 8232
4959 4960
4959 5069
4959 6351
4961 4963
4961 4964
4961 5293
4961 5294
4961 6343
4961 6344
4961 6345
4961 6346
4961 6347
4961 6348
4963 7574
4966 8483
4971 5776
4971 4972
4971 4973
4971 4974
4971 5315
4971 5317
4971 5937
4971 8220
4971 8221
4971 8222
4971 8224
4976 4976
4976 4992
4976 4996
4976 8257
4983 5338
4983 5860
4986 5345
4986 8225
4992 5255
4992 6601
4992 8030
4998 6057
5000 5002
5000 5377
5000 5484
5000 6103
5000 6760
5000 6764
5000 7789
5000 8260
5000 8261
5002 5704
5003 5007
5003 5389
5009 6240
5009 6486
5012 5092
5012 8436
5016 5142
5016 5404
5016 7520
5022 5408
5022 5067
5022 5224
5025 5026
5025 7387
5025 8371
5027 5193
5027 5429
5027 5044
5027 5045
5027 5371
5027 6215
5027 7491
5027 8385
5027 8386
5027 8387
5027 8388
5028 7471
5035 5939
5035 6527
5035 7208
5035 7304
5035 7305
5035 7306
5035 7307
5035 7308
5035 7309
5035 7310
5035 7311
5036 5037
5036 5418
5036 8372
5036 8373
5036 8374
5036 8375
5036 8376
5036 8377
5036 8378
5036 8379
5039 5086
5039 5370
5039 5427
5039 8382
5039 8383
5039 8384
5041 5427
5045 6878
5046 5049
5046 5430
5046 8392
5046 8393
5057 6929
5059 5411
5061 5354
5063 5065
5063 5396
5064 5065
5064 5628
5064 8485
5067 5224
5067 5326
5067 5568
5067 5298
5067 5361
5069 5427
5069 6087
5069 7242
5069 5454
5069 5709
5069 5776
5069 5987
5069 6372
5069 6604
5069 7085
5069 7174
5069 7231
5069 7232
5069 7233
5069 7234
5069 7235
5069 7236
5069 7237
5069 7238
5069 7239
5069 7240
5069 7241
5069 7435
5069 7446
5069 7827
5069 8155
5070 7239
5081 5082
5081 5467
5081 8408
5083 8407
5085 7636
5085 5086
5085 5463
5085 5831
5086 5128
5086 5358
5086 5417
5086 5528
5086 5664
5087 5468
5087 7003
5090 5474
5090 6264
5090 6753
5090 7644
5090 8014
5090 8410
5090 8411
5091 6340
5092 5162
5094 7645
5095 8436
5096 5113
5100 5245
5105 5495
5105 7180
5105 8367
5105 8368
5105 8369
5107 5108
5107 5505
5109 6231
5110 5422
5110 7098
5112 5113
5112 5255
5113 5255
5113 6212
5113 5196
5113 5367
5113 5587
5115 5510
5117 6497
5117 6499
5119 5120
5119 5121
5119 8269
5125 5126
5125 8271
5127 5190
5128 5129
5128 5514
5128 6892
5128 8272
5128 8273
5130 6897
5130 6896
5133 5535
5135 5170
5140 5141
5140 8300
5140 8301
5143 5145
5143 5543
5143 6031
5143 6987
5145 5146
5145 5162
5145 5370
5145 5746
5145 8495
5145 8496
5147 5548
5150 5251
5150 7040
5151 5251
5153 5726
5153 6791
5153 7332
5156 5474
5157 8320
5157 8321
5157 8322
5157 8323
5159 5564
5164 7078
5164 8319
5168 5565
5170 5237
5170 7125
5174 5175
5176 5177
5176 5563
5176 7133
5176 7134
5176 8327
5178 5563
5179 7135
5185 5469
5185 5252
5185 5253
5185 8330
5185 8331
5188 5326
5190 8334
5190 5191
5190 5192
5190 5275
5190 6341
5190 6949
5190 8332
5190 8333
5190 8336
5193 5194
5197 5385
5197 5198
5197 7211
5197 8341
5200 7271
5205 5206
5205 5307
5205 8342
5205 8343
5205 8344
5207 5649
5207 8346
5207 8347
5207 8348
5207 8349
5207 8350
5207 8458
5209 5296
5209 5337
5209 5478
5209 5211
5209 7285
5209 7286
5212 5528
5212 6272
5212 6415
5212 6427
5235 5641
5237 5238
5241 8219
5241 8380
5241 6534
5241 8457
5242 5639
5245 7841
5248 5821
5248 5645
5248 6801
5248 7880
5248 7881
5248 7882
5250 7081
5251 7874
5255 5266
5255 5357
5255 5374
5255 5671
5255 6642
5255 7935
5258 5655
5258 5785
5258 5787
5262 5708
5262 7941
5268 5681
5268 5682
5268 5683
5268 5684
5268 5685
5268 5686
5268 5687
5268 5688
5268 5689
5268 5690
5272 5273
5272 5695
5272 5696
5273 6485
5274 5275
5275 5296
5278 5495
5278 5818
5278 6131
5278 6722
5281 5597
5284 5548
5288 5407
5292 6305
5295 5296
5296 5306
5296 5830
5296 6455
5296 6632
5296 6633
5296 6634
5296 6635
5296 6636
5296 6637
5296 6638
5296 6639
5296 6640
5296 6641
5296 6642
5296 6643
5296 6644
5296 6645
5296 6646
5296 6647
5296 6648
5296 6649
5296 6650
5296 6651
5302 5531
5302 7637
5303 6500
5305 5306
5305 6322
5307 5392
5307 5446
5307 5495
5307 5584
5307 5585
5307 5812
5307 5818
5307 5970
5307 6112
5307 6349
5307 6743
5307 6835
5307 6838
5307 6839
5307 6840
5307 6842
5307 6843
5307 6844
5307 6845
5307 6952
5307 7024
5307 7178
5307 7179
5307 7677
5307 7920
5309 5352
5309 6350
5310 5395
5313 6452
5315 5849
5315 5856
5315 7037
5315 7038
5316 6266
5317 5666
5318 5319
5318 6457
5318 6458
5319 6211
5319 7289
5319 7290
5319 7291
5321 5530
5321 6653
5321 8106
5322 5323
5323 5500
5323 8176
5323 5501
5323 7091
5323 7716
5323 8427
5325 5326
5326 7581
5326 6989
5326 7582
5326 7583
5326 8168
5328 6592
5333 7039
5333 7762
5333 8441
5334 5335
5334 6056
5334 6652
5334 8228
5334 8246
5334 8247
5336 5397
5336 6625
5337 6718
5337 7182
5337 7826
5337 7910
5337 8398
5346 6723
5346 6719
5348 5349
5348 6053
5348 6054
5348 8227
5351 5353
5352 5841
5352 6150
5352 6176
5352 6199
5352 7131
5354 5725
5354 6375
5354 7097
5354 7934
5354 8190
5356 7065
5358 5359
5359 7413
5360 5999
5361 6034
5361 8362
5363 5364
5363 7654
5364 7847
5368 5369
5377 5704
5377 5989
5377 5988
5379 5610
5380 6061
5380 6062
5380 6063
5381 6728
5381 6729
5382 5383
5382 6774
5383 6126
5384 5385
5384 6478
5385 5688
5385 5996
5385 7366
5385 7475
5385 7477
5385 7478
5385 7479
5385 7480
5385 7481
5385 7482
5385 7518
5385 8211
5386 7343
5387 6081
5387 6082
5388 7392
5388 7877
5390 6827
5396 7256
5396 8263
5396 8264
5396 8266
5396 8267
5397 6086
5400 5401
5400 5402
5403 6115
5403 6117
5405 5406
5409 7339
5409 7340
5409 8123
5410 5507
5410 6328
5410 8429
5410 8430
5410 8431
5410 8432
5413 5892
5413 6891
5419 7531
5420 7175
5427 7462
5427 7763
5427 7764
5429 5486
5429 6543
5430 6422
5430 8484
5431 8395
5432 8262
5434 5435
5434 7533
5437 5438
5437 5439
5437 6389
5437 7561
5437 7562
5437 8400
5437 8401
5437 8402
5437 8403
5437 8404
5437 8405
5440 6257
5440 6258
5440 6260
5440 6261
5441 5612
5441 7483
5441 7484
5441 7485
5441 7486
5442 5443
5445 7573
5450 6374
5450 7592
5451 6605
5454 5508
5454 7239
5454 7948
5458 5459
5458 6228
5458 6229
5458 6242
5458 7680
5460 7247
5461 5462
5464 5465
5468 6598
5468 6177
5468 7198
5468 7199
5468 7200
5468 7201
5468 7202
5468 8340
5469 7643
5471 5472
5471 7640
5471 7641
5471 7642
5475 5476
5478 5479
5478 8426
5483 5484
5483 7636
5484 5704
5486 6029
5486 7700
5486 7701
5487 5720
5488 5489
5489 5965
5489 5962
5489 5963
5489 5964
5489 8001
5490 5491
5492 6507
5496 8366
5500 7091
5501 6520
5501 7655
5502 5503
5502 5707
5502 6255
5505 5518
5511 5515
5512 8390
5517 6423
5518 5520
5519 8270
5528 6610
5528 5763
5529 6897
5532 5533
5534 5883
5534 6918
5536 5537
5538 6922
5538 5539
5538 6923
5540 6945
5541 7523
5541 7528
5553 6209
5560 8324
5560 7386
5560 8370
5561 7093
5563 7626
5564 5605
5567 5755
5570 5571
5570 5572
5574 6033
5574 7274
5576 5577
5576 5850
5576 7173
5583 6832
5586 6735
5588 5589
5588 7163
5588 7165
5589 5812
5589 6819
5589 6820
5589 6821
5591 8339
5592 7190
5593 7192
5593 7193
5605 8357
5605 8358
5605 8359
5605 8360
5605 8361
5606 7647
5606 6246
5608 7312
5608 7313
5608 7314
5609 7393
5609 7710
5611 6148
5611 8210
5611 6147
5611 6149
5612 6849
5612 7318
5612 5613
5614 5615
5616 5617
5619 5620
5619 6247
5621 5622
5622 8394
5625 7894
5628 6624
5631 5633
5632 5633
5632 8095
5633 5828
5635 5636
5639 8463
5640 6442
5641 7865
5641 7866
5643 6947
5643 6948
5643 6949
5643 6950
5643 6951
5643 7754
5644 8187
5645 5940
5645 6083
5645 6084
5645 8230
5648 8188
5648 7864
5650 6424
5652 7889
5653 5654
5653 7918
5653 7919
5658 5659
5658 7023
5659 7498
5659 7575
5659 7576
5663 5664
5663 7906
5665 7185
5667 7728
5667 7128
5667 7913
5667 7914
5667 7915
5667 7916
5668 7302
5668 7628
5668 7629
5668 7630
5668 7631
5674 6100
5675 5676
5675 7092
5677 5678
5679 5680
5681 7317
5687 5825
5687 6181
5687 6454
5688 5992
5688 5993
5691 5692
5693 5694
5693 6279
5697 5698
5699 5700
5700 5701
5702 5703
5704 5705
5704 7119
5704 7789
5704 7790
5706 5798
5710 6015
5710 6016
5711 5712
5711 6503
5713 5714
5713 6297
5713 7220
5715 5716
5717 5718
5721 7118
5722 5723
5722 6763
5726 5728
5732 5733
5732 5775
5732 6854
5732 7131
5732 7319
5734 5735
5734 6975
5734 6976
5734 6978
5734 6980
5736 5737
5738 5739
5740 6508
5740 5741
5740 6509
5740 6510
5740 6511
5740 6512
5740 6513
5740 6514
5742 5743
5742 6600
5744 5745
5747 5748
5749 7696
5750 6690
5750 5751
5750 7514
5752 5753
5752 6656
5753 5754
5756 5757
5756 6706
5756 6816
5756 7517
5756 7868
5756 7869
5756 7871
5759 5760
5761 5762
5764 5765
5766 5767
5768 5769
5771 5772
5773 5774
5776 5950
5776 5952
5776 8134
5776 7494
5777 5778
5779 5780
5781 5782
5783 5784
5789 5790
5789 5811
5792 5793
5794 5795
5796 5797
5796 7273
5799 5800
5799 6685
5799 6686
5799 6688
5799 6689
5801 5802
5803 5804
5805 5806
5808 5809
5808 6655
5811 6068
5812 5813
5814 5815
5816 5817
5821 5822
5821 5839
5821 5840
5821 6323
5821 6853
5821 7210
5823 5824
5823 7238
5828 6789
5828 7047
5828 7181
5828 7296
5828 7383
5831 6135
5831 7544
5831 5832
5831 7058
5833 5834
5835 5836
5837 5838
5841 5842
5841 6218
5841 7087
5841 7267
5841 7708
5841 7709
5841 7756
5843 5844
5845 5846
5847 5848
5847 6134
5854 5855
5857 5858
5858 7893
5861 5862
5861 7365
5861 7900
5861 7901
5863 5864
5865 5866
5865 6910
5867 5868
5869 5870
5871 5872
5873 5874
5874 7042
5875 5876
5876 6875
5876 6874
5878 8157
5879 5880
5881 5882
5882 6384
5882 6385
5882 6386
5884 5885
5886 5887
5888 5889
5888 7280
5890 5891
5892 5893
5892 5935
5892 6199
5892 6204
5892 7570
5894 5895
5896 5897
5896 7252
5898 5899
5900 5901
5900 8058
5902 5903
5904 5905
5904 7553
5905 6859
5906 5907
5906 6167
5908 5909
5910 5911
5910 5943
5910 5944
5910 5945
5912 5913
5912 7124
5913 7011
5913 8070
5916 5917
5918 5919
5921 5922
5923 5924
5923 5925
5926 5927
5928 5929
5928 7896
5928 7897
5928 7898
5930 5931
5932 5933
5935 5936
5940 5941
5946 5947
5946 6357
5948 5949
5950 5951
5950 5953
5950 5954
5950 5955
5950 5957
5951 6071
5953 7604
5954 6388
5954 7303
5955 6679
5958 5959
5960 5961
5965 7808
5968 5969
5970 5971
5973 5974
5974 8196
5975 5976
5977 5978
5979 5980
5983 5984
5985 5986
5988 5989
5989 7768
5994 5995
5994 6858
5996 5997
5996 6006
5996 6012
5996 6013
5996 6019
5996 7297
5998 5999
6000 6001
6002 7688
6007 6008
6007 6009
6007 6014
6007 7068
6007 7069
6010 6011
6017 6018
6021 6022
6023 6024
6023 6025
6023 6026
6023 6032
6023 6047
6027 6028
6031 6142
6031 7011
6035 6036
6037 6038
6037 6804
6039 6040
6041 6042
6043 6044
6045 6046
6050 6239
6051 6052
6055 6056
6058 6059
6064 6065
6066 6067
6069 6070
6071 6616
6071 6881
6071 6882
6071 6883
6072 6073
6072 6074
6072 6075
6076 6077
6079 6080
6089 6090
6089 6122
6091 6092
6093 6094
6095 6096
6097 6098
6097 7439
6101 6102
6103 6104
6105 6106
6107 6108
6110 6111
6118 6119
6119 6121
6122 6123
6122 6411
6122 6806
6122 7191
6122 7473
6122 7474
6124 6125
6127 6128
6129 6130
6132 6133
6135 6136
6138 6139
6138 6631
6140 6141
6144 6145
6147 7259
6147 7260
6151 6152
6153 6154
6153 7792
6155 6156
6156 6157
6158 6159
6160 6161
6160 7261
6160 7263
6162 6163
6162 6171
6162 6172
6162 6188
6162 6190
6164 6165
6164 7151
6168 6169
6171 6812
6173 6174
6175 6176
6178 6179
6178 6606
6182 6183
6184 6185
6186 6187
6191 6192
6193 6194
6194 7005
6196 7497
6196 6790
6196 7670
6197 6198
6200 6201
6202 6203
6202 7328
6205 6206
6205 6380
6207 6208
6209 6210
6212 6213
6212 6214
6212 6221
6212 6222
6212 6232
6212 6233
6212 6238
6212 6251
6212 7621
6216 6217
6219 6220
6223 6252
6223 6224
6229 7431
6229 7432
6229 7433
6229 7434
6234 6235
6236 6237
6241 6242
6242 6243
6243 6462
6243 6567
6243 6683
6243 7114
6243 7277
6243 7727
6243 7777
6243 7778
6243 7858
6244 6245
6249 6250
6249 7536
6252 6709
6252 7543
6253 6254
6262 6263
6264 8019
6265 6266
6266 6267
6273 6274
6273 6962
6273 6963
6273 6964
6273 6965
6273 6966
6273 6967
6273 6969
6273 6970
6275 8204
6275 6276
6277 6278
6280 6281
6282 6283
6284 6285
6286 6287
6288 6289
6290 6291
6290 6292
6290 6293
6290 6295
6290 6298
6298 7892
6299 6300
6299 6301
6302 6303
6302 6352
6307 8114
6308 6309
6309 6824
6310 6311
6312 6313
6312 6314
6313 7455
6315 6316
6315 6318
6315 6319
6320 6321
6323 6324
6323 6325
6323 6327
6331 6332
6333 6334
6336 6337
6353 6354
6355 6356
6358 6359
6358 6360
6358 6361
6358 7667
6362 6363
6364 6365
6365 6770
6365 7454
6366 6367
6368 6369
6370 6371
6376 6377
6376 6381
6376 7275
6378 6379
6379 7907
6380 7077
6380 8081
6382 6383
6389 7615
6390 6391
6392 6393
6394 6395
6396 6397
6398 6399
6400 6401
6403 6404
6405 6406
6407 6408
6409 6410
6412 6413
6416 6417
6418 6419
6425 6426
6425 7736
6428 6429
6430 6431
6433 6434
6433 7153
6433 7205
6435 6436
6437 6438
6437 6799
6437 6885
6439 6440
6439 6441
6442 8075
6442 8204
6442 6443
6442 6599
6442 7292
6448 6449
6449 6450
6449 6451
6459 6460
6463 6464
6464 7152
6466 6467
6466 7059
6466 7067
6468 6469
6470 6471
6472 6473
6472 7212
6474 6475
6474 6765
6474 6769
6474 7296
6475 6971
6476 6477
6480 6481
6482 6483
6482 7026
6483 6484
6484 7026
6487 6488
6489 6809
6489 6490
6491 6492
6493 6494
6495 6496
6504 6505
6515 6516
6517 6971
6517 6518
6521 6522
6523 6524
6525 6526
6525 6904
6525 6906
6525 6907
6528 6529
6528 7587
6530 6531
6530 6552
6532 6533
6535 6536
6535 6744
6537 6538
6539 6540
6541 6542
6544 6547
6544 6545
6544 6546
6544 6549
6549 6554
6549 7501
6552 6553
6555 6556
6555 7004
6555 7016
6557 6558
6559 6816
6559 6560
6559 6815
6559 6817
6559 6818
6561 6562
6563 6564
6565 6566
6568 6569
6568 8218
6575 6576
6577 6578
6579 6580
6579 6581
6579 6582
6587 6588
6589 6590
6589 7699
6589 7832
6593 6594
6595 6596
6597 6598
6608 6609
6608 6615
6611 6612
6613 6614
6616 6617
6616 8174
6618 6619
6620 6621
6622 6623
6626 6627
6629 6630
6632 7584
6642 8163
6653 6654
6656 8200
6659 6660
6659 6788
6676 6677
6681 6682
6683 6684
6690 8117
6692 6693
6692 7804
6692 7805
6694 6695
6696 6697
6698 6699
6700 6701
6702 6703
6704 6705
6704 7746
6708 7011
6708 7472
6710 6711
6712 6713
6715 6716
6717 6718
6720 6721
6720 7148
6720 8098
6724 6725
6726 6727
6726 6736
6730 6731
6730 6895
6732 6733
6737 6738
6739 6740
6739 6750
6739 7031
6739 7032
6739 7033
6741 6742
6741 6886
6741 6887
6743 7146
6745 6746
6747 6748
6751 6752
6751 7719
6751 7720
6754 6755
6756 6757
6758 6759
6766 6767
6771 6772
6775 6776
6777 6778
6777 6863
6779 7027
6779 7028
6780 6781
6782 6783
6784 6785
6786 6787
6794 6795
6796 6797
6800 6801
6802 6803
6805 6988
6807 6808
6809 6847
6809 6848
6810 6811
6813 6814
6821 7604
6822 6823
6825 6826
6828 6829
6828 6830
6833 6834
6836 6837
6851 6852
6855 6856
6860 6861
6869 6870
6869 7704
6869 8052
6870 6871
6876 6877
6878 6879
6882 7597
6883 7414
6888 6889
6893 6894
6897 7663
6898 6899
6898 6900
6898 6902
6902 7168
6908 6909
6916 6917
6920 6921
6920 7623
6924 6925
6926 6927
6930 6931
6932 6933
6933 6935
6936 6937
6938 6939
6940 6941
6942 6943
6952 6956
6952 6954
6952 6955
6957 6958
6959 6960
6971 7769
6971 6973
6981 6982
6984 6985
6984 6986
6990 6991
6992 6993
6994 6995
6999 7000
7001 7002
7006 7007
7008 7009
7012 7013
7014 7015
7017 7018
7019 7020
7021 7022
7029 7030
7034 7035
7044 7045
7047 7694
7047 7695
7048 7049
7050 7051
7052 7053
7054 7055
7056 7057
7060 7061
7062 7063
7070 7071
7072 7073
7075 7076
7079 7080
7083 7084
7088 7089
7091 8305
7094 7095
7096 7097
7099 7100
7101 7102
7105 8083
7105 7106
7105 7107
7108 7109
7112 7113
7115 7116
7120 7121
7122 7123
7126 7127
7129 7130
7136 7137
7138 7139
7140 7141
7142 7143
7144 7145
7145 8217
7146 7825
7149 7150
7153 7155
7153 7157
7158 7159
7160 7161
7166 7167
7169 7170
7171 7172
7176 7177
7183 7184
7183 7622
7186 7187
7188 7189
7194 7195
7194 7196
7194 7197
7203 7204
7206 7207
7208 7209
7211 7651
7211 7652
7221 7222
7223 7224
7225 7226
7226 7228
7229 7230
7239 8365
7243 7244
7245 7246
7247 7248
7247 7324
7249 7250
7253 7254
7255 7256
7256 8263
7257 7258
7264 7265
7264 7266
7278 7279
7281 7282
7287 7288
7292 7293
7294 7295
7298 7299
7300 7301
7315 7316
7320 7321
7325 7326
7325 7557
7325 7558
7325 7559
7328 7411
7328 7412
7330 7331
7333 7334
7335 7336
7337 7338
7341 7342
7344 7345
7346 7347
7348 7349
7348 8125
7350 7351
7352 7353
7352 7591
7354 7355
7356 7357
7358 7359
7358 7443
7358 7723
7360 7361
7361 7567
7362 7363
7367 7368
7369 7370
7371 7372
7374 7375
7376 7377
7378 7379
7384 7385
7388 7389
7390 7391
7394 7395
7396 7397
7396 7398
7399 7400
7401 7402
7403 7404
7403 7405
7406 7407
7408 7409
7408 7410
7417 7418
7419 7420
7421 7422
7423 7424
7424 7426
7427 7428
7429 7430
7436 7437
7438 7646
7440 7441
7444 7445
7448 7449
7448 7753
7451 7452
7456 7457
7458 7459
7463 7464
7465 7466
7467 7468
7469 7470
7487 7488
7489 7490
7492 7493
7495 7496
7497 7924
7499 7500
7502 7503
7504 7505
7506 7507
7508 7509
7508 7510
7515 7516
7521 7522
7521 7612
7523 7524
7523 7525
7523 7526
7529 7530
7534 7535
7537 7538
7539 7540
7541 7542
7546 7547
7550 7551
7554 7555
7563 7564
7563 7565
7568 7569
7570 7572
7577 7578
7579 7580
7585 7586
7588 7589
7599 7600
7600 7601
7602 7603
7604 7605
7604 7606
7604 7607
7608 7609
7608 8159
7610 7611
7611 7618
7613 7614
7616 7617
7619 7620
7619 7899
7624 7625
7632 7633
7634 7635
7638 7639
7649 7650
7656 8166
7656 7657
7658 7659
7660 7661
7660 7662
7665 7666
7665 7755
7668 7669
7671 7672
7671 7673
7671 7674
7675 7676
7678 7679
7681 7682
7686 7687
7689 7690
7689 7691
7697 7698
7702 7703
7705 7706
7717 7718
7721 7722
7724 7725
7729 7730
7731 7732
7733 7734
7733 7735
7737 7738
7739 7740
7741 7742
7743 7744
7747 7748
7749 7750
7751 7752
7757 7758
7765 7766
7769 7770
7771 7772
7773 7774
7775 7776
7779 7780
7781 7782
7783 7784
7785 7786
7785 7843
7785 7844
7787 7788
7793 7794
7795 7797
7795 7796
7795 7799
7800 7801
7802 7803
7806 7807
7809 7810
7813 7814
7813 7818
7820 7821
7822 7823
7828 7829
7833 7834
7833 7835
7837 7838
7839 7840
7845 7846
7848 7849
7851 7852
7853 7854
7855 7856
7859 7860
7861 7862
7878 7879
7883 7884
7885 7886
7887 7888
7890 7891
7902 7903
7904 7905
7908 7909
7911 7912
7922 7923
7925 7926
7927 7928
7929 7930
7932 7933
7936 7937
7938 7939
7944 7945
7946 7947
7949 7950
7953 7954
7955 7956
7996 7997
8001 8002
8004 8005
8004 8196
8006 8007
8008 8009
8010 8198
8012 8013
8014 8015
8016 8017
8017 8018
8022 8023
8024 8199
8033 8201
8035 8201
8042 8043
8046 8047
8047 8048
8054 8202
8059 8060
8060 8061
8065 8066
8078 8204
8079 8080
8085 8086
8089 8090
8090 8091
8093 8205
8093 8206
8096 8097
8102 8207
8107 8108
8108 8109
8109 8110
8116 8117
8118 8208
8120 8121
8127 8210
8135 8212
8137 8139
8137 8213
8139 8140
8140 8213
8142 8143
8143 8144
8148 8214
8148 8215
8153 8154
8153 8216
8158 8159
8159 8161
8164 8165
8169 8170
8170 8171
8178 8179
8179 8180
8193 8194
8228 8229
8244 8245
8272 8459
8283 8363
8319 8437
8319 8438
8324 8325
8331 8491
8331 8492
8352 8434
8352 8435
8386 8389
8460 8461
